None;Alexandre Franke
Red Hat;Allan Day
None;Andrea Veri
Red Hat;Carlos Soriano
None;Christian Hergert
Endless;Cosimo Cecchi
Collabora;Ekaterina Gerasimova
None;Jeff Fortin Tam
Intel;Josh Triplett
The Scottish National Party, University of Edinburgh;Magdalen Berns
Canonical;Ryan Lortie
Red Hat;Shaun McCance
Huawei;Tobias Mueller
